{   
    "background": {
        "texture":"background/background.png",
        "layer": 0
    },
    "music": [
        {
            "name": "GAMEPLAY_MUSIC",
            "fileLocation": "music/Komiku_-_67_-_The_Moment_of_Truth.wav"
        },
        {
            "name": "WIN",
            "fileLocation": "music/RoccoW_-_06_-_Pumped.wav"
        },
        {
            "name": "LOSE",
            "fileLocation": "music/Kalipluche_-_Social_sentiments_8-bit_mix.wav"
        }
    ],
    "player": {
        "transform": {
            "position": {
                "x": 640.0,
                "y": 500.0
            }
        },
        "dataFileLocation": "player/player.json"
    },
    "boss": {
        "transform": {
            "position": {
                "x": 360.0,
                "y": -90.0
            }
        },
        "dataFileLocation": "levels/level_2/boss.json"
    },
    "ui": "ui/ui.json",
    "input": "input/input.json",
    "nextLevelLocation": "NONE"
}